Q_No,A,B,C,D
1,0,6.69,13.39,20.09
2,0,6.88,13.76,20.65
3,0,6.88,13.76,20.65
4,0,6.11,12.21,18.31
5,0,5.79,11.53,17.31
6,0,6.98,13.91,20.88
7,0,5.91,11.82,17.72
8,0,7.04,14.1,21.14
9,0,7.7,15.4,23.11
10,0,5.71,11.43,17.15
11,,,,
12,,,,